id,name,model_id:id,group_id:id,perm_read,perm_write,perm_create,perm_unlink
access_user_knowledge_tags,access_user_knowledge_tags,model_knowledge_tags,knownsystem_app.group_knownsystem_user,1,1,0,0
access_knowledge_tags,access_knowledge_tags,model_knowledge_tags,knownsystem_app.group_knownsystem_manager,1,1,1,1
access_user_knowledge_section,access_user_knowledge_section,model_knowledge_section,knownsystem_app.group_knownsystem_user,1,1,0,0
access_knowledge_section,access_knowledge_section,model_knowledge_section,knownsystem_app.group_knownsystem_manager,1,1,1,1
access_user_knowledge_bases,access_user_knowledge_bases,model_knowledge_bases,knownsystem_app.group_knownsystem_user,1,1,0,0
access_knowledge_bases,access_knowledge_bases,model_knowledge_bases,knownsystem_app.group_knownsystem_manager,1,1,1,1
access_like_dislike,access_like_dislike,model_like_dislike,knownsystem_app.group_knownsystem_user,1,1,1,1
access_knw_favourite,access_knw_favourite,model_knw_favourite,knownsystem_app.group_knownsystem_user,1,1,1,1